{"queryTime":"0 Seconds","totalCount":582,"pageNumber":1,"perPage":200,"pageCount":200,"data":[{"id":1350920,"name":"Dhol Wajda","duration":27},{"id":876132,"name":"Ooh La La","duration":26},{"id":988278,"name":"Dhol","duration":19},{"id":980700,"name":"Garba Gujarati","duration":28},{"id":840168,"name":"Dhol Remix","duration":15},{"id":282863,"name":"Punjabi","duration":25},{"id":1177872,"name":"Nasik Dhol","duration":29},{"id":980688,"name":"Garba Gujarati","duration":28},{"id":980696,"name":"Tara Vina Shyam","duration":20},{"id":803330,"name":"Dhol Flute","duration":15},{"id":348468,"name":"Nashik Dhol","duration":12},{"id":980684,"name":"Superhit Garba","duration":10},{"id":1309974,"name":"Dhol","duration":15},{"id":73925,"name":"nasik kawdi benjo_dhol","duration":20},{"id":113183,"name":"Sadi Gali Remix","duration":29},{"id":961370,"name":"Kaafirana- Fakht You","duration":29},{"id":993906,"name":"Sai Jai With Dhol","duration":20},{"id":899812,"name":"Dhol","duration":14},{"id":835950,"name":"3d Dhol Effects Mix","duration":25},{"id":788034,"name":"Cool Punjabi","duration":23},{"id":980653,"name":"Navratri Garba","duration":23},{"id":817271,"name":"Dhol Wajda","duration":20},{"id":1283577,"name":"Kaminey Dhol Mix","duration":24},{"id":354521,"name":"Mission Impossible 3","duration":27},{"id":339633,"name":"Dholida Dhol Re","duration":29},{"id":1344002,"name":"Rapture Dhol","duration":28},{"id":1305751,"name":"Dhol Bajake","duration":29},{"id":951058,"name":"Haryanvi Dhol","duration":29},{"id":1299377,"name":"Aashiq Banaya Dhol","duration":16},{"id":1284275,"name":"Dhan Te Nan Dhol Mix","duration":27},{"id":951798,"name":"Maharashtrache Dhol","duration":26},{"id":348917,"name":"Dhol Music","duration":14},{"id":1218490,"name":"English Dhol","duration":17},{"id":1336205,"name":"Lamber Mix","duration":29},{"id":1199615,"name":"Dhol Beat","duration":22},{"id":130411,"name":"Dhol Mix","duration":19},{"id":1289769,"name":"Bhangra Beat","duration":23},{"id":113523,"name":"Singham Dhol","duration":28},{"id":356163,"name":"Latest Mission Impsb","duration":29},{"id":855051,"name":"Morya    Dhol  Mix","duration":29},{"id":980675,"name":"Navratri 2012","duration":28},{"id":118460,"name":"Dhol Mix","duration":29},{"id":107700,"name":"Punjabi Baby","duration":28},{"id":1285201,"name":"Dhol Wajada","duration":15},{"id":910624,"name":"Gujarati Aiwa","duration":29},{"id":141771,"name":"Dhol By Patildada","duration":10},{"id":977320,"name":"Nice Beats","duration":28},{"id":842033,"name":"Dhol Remix","duration":14},{"id":1283053,"name":"Rapture Dhol","duration":15},{"id":1289818,"name":"Dhol Mi2-sms","duration":7},{"id":1322283,"name":"Dhol-bansuri-instr","duration":18},{"id":1338675,"name":"Dhol","duration":16},{"id":1204338,"name":"Pehli Nazar  Dholmix","duration":29},{"id":43370,"name":"Nokia Dhol..","duration":24},{"id":833958,"name":"Rapture Dhol","duration":18},{"id":1248518,"name":"Guzarish Dhol Mix","duration":29},{"id":938601,"name":"Uladhaal","duration":7},{"id":868483,"name":"Dhol","duration":15},{"id":795673,"name":"Bewafa Dhol Mix","duration":24},{"id":980679,"name":"Garbo Maro Sona No","duration":28},{"id":284498,"name":"Aivayi Aivayi-dhol","duration":28},{"id":295009,"name":"Dhol","duration":22},{"id":800874,"name":"Rapture Dhol","duration":15},{"id":1257868,"name":"Funny Punja","duration":29},{"id":1180444,"name":"Dhol Remix","duration":24},{"id":821802,"name":"Tmk-dhol","duration":27},{"id":860951,"name":"Dhol Wajda","duration":28},{"id":1241910,"name":"Play The Dhol","duration":29},{"id":1326174,"name":"Dholwajada Tumba","duration":14},{"id":41368,"name":"Lala laalalala lala dhol remix","duration":15},{"id":980690,"name":"Garba Special","duration":28},{"id":1351385,"name":"Dhol Nokia Mix","duration":24},{"id":980678,"name":"Superhit Navratri","duration":28},{"id":212725,"name":"Durga Puja","duration":29},{"id":348746,"name":"Dj Dhol 2010","duration":15},{"id":1038940,"name":"algojey sarangi dhol","duration":29},{"id":170424,"name":"Nokia Dhol","duration":25},{"id":287774,"name":"Dj Dhol","duration":24},{"id":133834,"name":"Joybhangra-ranjha","duration":26},{"id":355576,"name":"Brazil Dhol","duration":28},{"id":354875,"name":"Nasik Dhol","duration":19},{"id":796399,"name":"Airtel Dhol  Bass","duration":29},{"id":286753,"name":"Dhol","duration":18},{"id":1342248,"name":"Yaron Dosti Dhol Mix","duration":29},{"id":842072,"name":"Dhol - Bhangra Dhol","duration":29},{"id":284561,"name":"Punjabi","duration":21},{"id":1321280,"name":"Play The Dhol","duration":29},{"id":1221093,"name":"Airtel Dhol","duration":29},{"id":795438,"name":"3d Dhol Effects Mix","duration":25},{"id":917149,"name":"Ipl Dancemix","duration":18},{"id":350283,"name":"A Rapture Dhol","duration":15},{"id":1014466,"name":"Dhol","duration":29},{"id":1312407,"name":"Mission Imp Dhol Mix","duration":29},{"id":180189,"name":"Repture Dhol","duration":15},{"id":198605,"name":"Dholi Ra Dhol","duration":28},{"id":346696,"name":"Dhol Nasik","duration":19},{"id":840836,"name":"Real Beats Of Dhol","duration":11},{"id":1271980,"name":"Twist Flute Dhol Snk","duration":18},{"id":1218657,"name":"Dekha Jo Tujhe Yaar","duration":14},{"id":1243740,"name":"Dhol","duration":20},{"id":1194557,"name":"Indian Drum Tabla","duration":9},{"id":150429,"name":"Dhol","duration":29},{"id":1296241,"name":"Rapture Dhol","duration":29},{"id":159158,"name":"Dholida Dhol","duration":27},{"id":350127,"name":"Rapture Dhol Mix","duration":22},{"id":842076,"name":"Dhol - Kherwara","duration":22},{"id":149972,"name":"Desi Tone","duration":27},{"id":1245606,"name":"Marathi Tone","duration":29},{"id":815905,"name":"Dhol Mision Imposibl","duration":29},{"id":1243443,"name":"Blochi Ringtune","duration":29},{"id":1353980,"name":"Kites On Dhol","duration":28},{"id":966969,"name":"Twinkle Twinkle","duration":14},{"id":1131039,"name":"Dhol Bits","duration":29},{"id":330974,"name":"Pure Desi Dhol","duration":29},{"id":1352836,"name":"Dhol Bajake","duration":28},{"id":287119,"name":"Dhol","duration":29},{"id":841670,"name":"Zor Ka Jhatka Dhol","duration":29},{"id":1279909,"name":"Nokia Kick Dhol","duration":24},{"id":964982,"name":"Nashik Dhol","duration":11},{"id":838009,"name":"Punjabi Dhol 2011","duration":14},{"id":876268,"name":"Dholna-mix Dhol","duration":29},{"id":245797,"name":"Nokia Dhol","duration":25},{"id":1233136,"name":"Dhol - Dj","duration":21},{"id":1207805,"name":"Dhol","duration":25},{"id":850475,"name":"Kites On Dhol","duration":28},{"id":60888,"name":"Dhol Rinse","duration":30},{"id":850162,"name":"Brazil Dhol","duration":28},{"id":145735,"name":"Nashik Dhol","duration":28},{"id":780812,"name":"Dhol","duration":6},{"id":387258,"name":"Baarati","duration":13},{"id":980635,"name":"Dandiya Special","duration":28},{"id":1253488,"name":"Punjabi Dhol","duration":14},{"id":980638,"name":"Navratri Rhythm","duration":27},{"id":825079,"name":"O Yaara Dhol","duration":29},{"id":258042,"name":"Cwg Dhol","duration":29},{"id":147258,"name":"Dhol","duration":14},{"id":980654,"name":"Navratri Theme","duration":27},{"id":1243512,"name":"Dance Pe Chance Dhol","duration":29},{"id":1254094,"name":"Dhol Vs Glassy","duration":29},{"id":821944,"name":"Pump It Dhol","duration":28},{"id":149217,"name":"Dhol","duration":22},{"id":1209939,"name":"Azeemo","duration":29},{"id":131362,"name":"Punjabi Dhol","duration":29},{"id":842074,"name":"Dhol - Garba Dandiya","duration":27},{"id":125744,"name":"Ipl Vs Dholida Dhol","duration":28},{"id":206123,"name":"Rapture Dhol","duration":17},{"id":980665,"name":"Navratri Garba","duration":28},{"id":1013137,"name":"Dhol - Tapori","duration":28},{"id":1243555,"name":"Peeche Peeche Aya Dh","duration":21},{"id":1263577,"name":"Dhol Remix Mahin","duration":24},{"id":344844,"name":"Desi Storm","duration":21},{"id":343178,"name":"Punjabi Dhol","duration":29},{"id":53903,"name":"Dhol","duration":19},{"id":44170,"name":"Nokia Kick Dhol","duration":25},{"id":1264848,"name":"Dhol","duration":29},{"id":811122,"name":"Dhol Sms","duration":2},{"id":1260412,"name":"Bajere Baje Dhol","duration":29},{"id":1212411,"name":"9pm Puneri Dhol Mix","duration":10},{"id":980686,"name":"Garba Tone","duration":22},{"id":348062,"name":"Dj Police Dhol Part","duration":6},{"id":295103,"name":"Dil Lutiya Dhol Mix","duration":14},{"id":285083,"name":"Bewafa Dhol Mix","duration":29},{"id":125761,"name":"Nasik Dhol Remix","duration":23},{"id":940034,"name":"Dholida Dhol Re","duration":16},{"id":795145,"name":"Mai Chali Aa","duration":27},{"id":785449,"name":"Poonadhol N Bamuliza","duration":22},{"id":980657,"name":"Garba Gujarati","duration":24},{"id":980643,"name":"Garba Dhol","duration":26},{"id":926519,"name":"Dhol 007","duration":28},{"id":849188,"name":"Mumbai Dhol","duration":23},{"id":1288922,"name":"Bond 007","duration":29},{"id":785694,"name":"Slow Rhythm  Dhol","duration":18},{"id":295448,"name":"Dhol","duration":29},{"id":980674,"name":"Garba Shetalpur Ma","duration":28},{"id":1314233,"name":"Dhol Beats","duration":23},{"id":185405,"name":"Dhol","duration":15},{"id":1364263,"name":"Dhol Dj","duration":13},{"id":817668,"name":"Natrang Dhol","duration":28},{"id":861119,"name":"Dhol Beats","duration":28},{"id":830115,"name":"Dhol Siren Mix Tone","duration":17},{"id":836331,"name":"3d Dhol Mix","duration":25},{"id":227449,"name":"Airtel Dhol N Bass","duration":29},{"id":980645,"name":"Dholida Garba","duration":22},{"id":980672,"name":"Garba Original","duration":15},{"id":1111324,"name":"Dhol 007","duration":28},{"id":215468,"name":"Rapture Dhol","duration":15},{"id":65749,"name":"Lala laalalala lala dhol remix","duration":15},{"id":817597,"name":"Djuice Dhol Mix","duration":29},{"id":779806,"name":"Pump It Up Dhol Mix","duration":28},{"id":980693,"name":"Garba Gujarati Cool","duration":28},{"id":1293704,"name":"Dhol Bajda","duration":17},{"id":842075,"name":"Dhol - Garba Dandiya","duration":27},{"id":980676,"name":"Navratri Superhit","duration":15},{"id":1185302,"name":"Dj Pac - Dhol Mix","duration":29},{"id":1294397,"name":"Indiandhol","duration":19},{"id":154562,"name":"First Dhol","duration":29},{"id":24055,"name":"Dhol Rinse","duration":30},{"id":90908,"name":"Puneri Dhol","duration":24},{"id":800736,"name":"Dhol Dak","duration":12},{"id":1047733,"name":"Nagada Sang Dhol","duration":25}]}