{"queryTime":"0 Seconds","totalCount":470,"pageNumber":1,"perPage":200,"pageCount":200,"data":[{"id":1167903,"name":"Is Parchum ke Sae","duration":26},{"id":856057,"name":"1 Army","duration":29},{"id":936037,"name":"New Army Tone","duration":26},{"id":1158348,"name":"Waffen SS Remix","duration":30},{"id":118903,"name":"Army Of The Nile","duration":29},{"id":49556,"name":"CELTIC FC  GREEN ARMY","duration":1},{"id":1090375,"name":"Duck Army","duration":5},{"id":1088347,"name":"Heavy Mortar Fire","duration":14},{"id":116315,"name":"Helicopter","duration":18},{"id":1014230,"name":"Alarm Army","duration":29},{"id":163323,"name":"Metal Gear Short Sms","duration":1},{"id":1135866,"name":"BTS BloodSweatTears","duration":28},{"id":1297075,"name":"Green Beret","duration":30},{"id":1179347,"name":"Army Strong","duration":29},{"id":236624,"name":"Skarmy Of Darkness","duration":18},{"id":126338,"name":"Army-emargancy","duration":16},{"id":1003047,"name":"Army Whistle","duration":20},{"id":1358452,"name":"The Unit","duration":29},{"id":1278664,"name":"Battle Field","duration":12},{"id":974335,"name":"Dont Tell Him Pike","duration":5},{"id":971706,"name":"Americas Army Theme","duration":26},{"id":253341,"name":"Army Trumpet Loud","duration":16},{"id":1028347,"name":"Army Wake Up","duration":21},{"id":354192,"name":"Dads Army","duration":26},{"id":1169519,"name":"YA -  BTS Jin","duration":1},{"id":1097413,"name":"army2","duration":25},{"id":866804,"name":"Wake Up Alarm","duration":2},{"id":1030185,"name":"Russian Army 1930","duration":18},{"id":100670,"name":"CELTIC FC  GREEN ARMY","duration":1},{"id":277652,"name":"Radio Mil","duration":16},{"id":1226803,"name":"Code Dhonneur Verse7","duration":13},{"id":958708,"name":"Here We Go","duration":29},{"id":173137,"name":"Vdv","duration":20},{"id":1159935,"name":"army","duration":21},{"id":385481,"name":"Alarm Marines","duration":17},{"id":1053446,"name":"iraqi army music","duration":29},{"id":337586,"name":"Army Tone","duration":18},{"id":977348,"name":"Army Alarm Sms","duration":6},{"id":1144791,"name":"Indian Army AR 2","duration":29},{"id":1088342,"name":"War Ambiance","duration":23},{"id":1093979,"name":"New Army Song","duration":26},{"id":41602,"name":"Seven Nation Army","duration":30},{"id":1361166,"name":"Reload Gun","duration":1},{"id":1049973,"name":"israel march","duration":29},{"id":1009841,"name":"Reveille","duration":19},{"id":1266905,"name":"Treceti Batalioane","duration":24},{"id":930669,"name":"Indian Army","duration":23},{"id":1030235,"name":"Bugle Charge","duration":5},{"id":1006090,"name":"Portal 2 Clone Army","duration":2},{"id":310504,"name":"Army Msg","duration":23},{"id":861818,"name":"Army Of Fear","duration":28},{"id":836952,"name":"Lg Mobile Army 2011","duration":7},{"id":954819,"name":"Shief","duration":2},{"id":1306989,"name":"Hora Unirii","duration":28},{"id":836518,"name":"Army Sms","duration":8},{"id":1050481,"name":"Army Alarm","duration":6},{"id":883510,"name":"The Unit Theme Song","duration":29},{"id":961697,"name":"Klaatu Verata N","duration":5},{"id":1272697,"name":"Gump Army","duration":9},{"id":290579,"name":"Reveille","duration":20},{"id":25474,"name":"The Unit","duration":18},{"id":795747,"name":"Army Ring New","duration":7},{"id":1150560,"name":"F the British Army","duration":19},{"id":248420,"name":"Rest Of My Life","duration":26},{"id":1200228,"name":"Drumming","duration":9},{"id":383829,"name":"Army","duration":24},{"id":1107747,"name":"Blood","duration":4},{"id":1235586,"name":"Naruto Sa-si","duration":3},{"id":1084714,"name":"Army ringtone","duration":29},{"id":923420,"name":"Army Alarm","duration":6},{"id":962083,"name":"Born A Mackem","duration":29},{"id":814184,"name":"Nik-meessage","duration":4},{"id":902861,"name":"Army Base Brawl","duration":28},{"id":380832,"name":"Army Strong","duration":21},{"id":1034252,"name":"Cool Dubstep","duration":28},{"id":1181717,"name":"Good Bad","duration":4},{"id":279275,"name":"Gun","duration":7},{"id":1100977,"name":"mua","duration":29},{"id":1278826,"name":"Army Of The Sun","duration":29},{"id":193864,"name":"Army Wives","duration":4},{"id":1198128,"name":"Nco Ringtone","duration":22},{"id":356010,"name":"Army Marsh","duration":5},{"id":294591,"name":"Pakistan Army","duration":12},{"id":1245294,"name":"Seven","duration":20},{"id":943286,"name":"Army Retreat","duration":27},{"id":1122852,"name":"Thats the fact","duration":3},{"id":258593,"name":"Ultimate Shooter","duration":10},{"id":336854,"name":"Battle Field Theme","duration":27},{"id":928417,"name":"Ac130","duration":19},{"id":1229620,"name":"Emergency Alert","duration":17},{"id":226128,"name":"American Warroir","duration":25},{"id":355876,"name":"Klaatu Verata Nictu","duration":5},{"id":885545,"name":"Drill Instructor 02","duration":17},{"id":1141451,"name":"army","duration":20},{"id":1096850,"name":"Military Drums","duration":17},{"id":328507,"name":"Counterstrike","duration":4},{"id":1290846,"name":"Greensemper","duration":29},{"id":1034398,"name":"Army Alarm","duration":6},{"id":133487,"name":"New Indian Army","duration":28},{"id":305346,"name":"Battle","duration":24},{"id":1262623,"name":"Army Salute Trumpet","duration":9},{"id":807258,"name":"Army Gun Shots 2010","duration":17},{"id":378270,"name":"Military Army","duration":24},{"id":1246849,"name":"Bugle Call","duration":27},{"id":1213469,"name":"Dads Army","duration":27},{"id":198123,"name":"Treceti Batalioane","duration":22},{"id":898905,"name":"Us Army Commercial","duration":29},{"id":1221161,"name":"Heejaheejaaik","duration":20},{"id":1191817,"name":"Gun Shots","duration":6},{"id":294605,"name":"Pakistan Army Song","duration":16},{"id":222052,"name":"Seven Nation","duration":14},{"id":1348338,"name":"Indian Army","duration":29},{"id":1119964,"name":"Hail Hydra Ringtone","duration":4},{"id":45899,"name":"Marching soliders","duration":5},{"id":952225,"name":"Army","duration":5},{"id":1226801,"name":"Code Dhonneur Verse5","duration":10},{"id":1257040,"name":"Silence I Keel You","duration":23},{"id":813892,"name":"Build A New Army","duration":9},{"id":378680,"name":"Army Strong","duration":28},{"id":299271,"name":"Funeral Army Us","duration":29},{"id":377833,"name":"Border Flute","duration":16},{"id":884258,"name":"Army Ringtone","duration":18},{"id":326525,"name":"Sala Journal","duration":29},{"id":1226310,"name":"Military Armycadence","duration":29},{"id":1309164,"name":"Angels Army","duration":29},{"id":988963,"name":"Army Wake Up Song","duration":29},{"id":1199797,"name":"Warrior Message","duration":2},{"id":979732,"name":"Armysong","duration":27},{"id":1100432,"name":"Village of the Dead","duration":29},{"id":1217434,"name":"Ottoman","duration":19},{"id":859731,"name":"Pakistan Army","duration":22},{"id":968867,"name":"Chuck Norris","duration":29},{"id":306015,"name":"Im A Ssgt","duration":21},{"id":336861,"name":"Call Of Duty Theme","duration":27},{"id":1088345,"name":"M16 Bursts","duration":6},{"id":1164433,"name":"Army","duration":21},{"id":906951,"name":"Wakeup","duration":5},{"id":986742,"name":"Call To The Post","duration":8},{"id":1123057,"name":"7 Army","duration":24},{"id":300988,"name":"Army Alarm","duration":6},{"id":1134892,"name":"Army","duration":8},{"id":929182,"name":"New Army Music","duration":23},{"id":294675,"name":"Pakistan Army Song","duration":28},{"id":97196,"name":"The Unit","duration":19},{"id":294645,"name":"Pakistan Army Parade","duration":14},{"id":1142895,"name":"Pak Army","duration":29},{"id":379537,"name":"Blaydon Races","duration":29},{"id":1154327,"name":"DJ army Dj Armagan","duration":30},{"id":910415,"name":"Porucik Zigira","duration":11},{"id":965154,"name":"Dosto Saathiyo","duration":29},{"id":1040188,"name":"ARMY DRUM EFFECTS","duration":29},{"id":364206,"name":"Gun Shot","duration":29},{"id":1044230,"name":"dj army","duration":29},{"id":241829,"name":"Army Patriotic Theme","duration":18},{"id":1291488,"name":"Messege Armey","duration":6},{"id":1003046,"name":"Charge","duration":4},{"id":976791,"name":"Military Anthem","duration":28},{"id":1307776,"name":"Army All By Myself","duration":17},{"id":906392,"name":"The World Is Ours","duration":27},{"id":290150,"name":"Army","duration":28},{"id":1342536,"name":"Arsenal Army","duration":29},{"id":1006166,"name":"Army Wake Up","duration":20},{"id":47667,"name":"army black command","duration":16},{"id":315712,"name":"Army Trompet","duration":21},{"id":374180,"name":"Army Girl","duration":25},{"id":349766,"name":"Army","duration":24},{"id":932089,"name":"Sacred War March","duration":29},{"id":1193760,"name":"Army Of Music","duration":26},{"id":1210768,"name":"Trubka","duration":7},{"id":224332,"name":"Dope - Addiction","duration":18},{"id":231450,"name":"Cobracoustic","duration":29},{"id":1088350,"name":"Marine Firefight","duration":24},{"id":1291747,"name":"Army Bugle Tone","duration":12},{"id":77067,"name":"We can be Hero - RC Week 196","duration":29},{"id":1003051,"name":"Army Wake Up","duration":21},{"id":47017,"name":"Reveille","duration":22},{"id":379983,"name":"Army Fight Song","duration":25},{"id":372221,"name":"Full Metal Jacket","duration":42},{"id":1222551,"name":"Army Emergency","duration":17},{"id":1322760,"name":"Green Army","duration":19},{"id":386860,"name":"Greek Army","duration":24},{"id":859738,"name":"Pakistan","duration":28},{"id":1293003,"name":"New Tone","duration":6},{"id":833941,"name":"Army Tompet","duration":12},{"id":994376,"name":"Ab Tumhare Hawale","duration":29},{"id":159088,"name":"Klatu Verata Nicto","duration":4},{"id":1194640,"name":"Army 2lt Commands","duration":22},{"id":246880,"name":"Soja","duration":29},{"id":314904,"name":"Fanfare","duration":4},{"id":367828,"name":"Ringtone Russia","duration":28},{"id":1312468,"name":"Citizen Soldier","duration":20},{"id":1164874,"name":"army wake up","duration":21},{"id":857493,"name":"Pakistan Army Song","duration":28},{"id":244068,"name":"Lg Mobile Army 2011","duration":7},{"id":1208232,"name":"Great Message","duration":4},{"id":859392,"name":"Battlefield Bc","duration":22},{"id":198606,"name":"Marine Corps","duration":16},{"id":991569,"name":"Border Theme","duration":29},{"id":373976,"name":"Call Of Duty","duration":25},{"id":991571,"name":"Hindustan Hindustan","duration":19}]}