{"queryTime":"0 Seconds","totalCount":627,"pageNumber":1,"perPage":200,"pageCount":200,"data":[{"id":832258,"name":"3g Dj Ringtone","duration":27},{"id":1041238,"name":"DJ MiSiek RingTone30","duration":29},{"id":820337,"name":"Hot Beats 2010","duration":29},{"id":1026526,"name":"Innovation","duration":29},{"id":1334777,"name":"Tirchi Topiwale Dj","duration":29},{"id":1041209,"name":"DJ MiSiek RingTones7","duration":29},{"id":42428,"name":"Bounce","duration":28},{"id":274738,"name":"Dj Remix","duration":28},{"id":1026534,"name":"Dj Omar- Raise 2moon","duration":29},{"id":850676,"name":"Horror Mix Dj","duration":26},{"id":796930,"name":"Lethalin","duration":28},{"id":875662,"name":"Ultra Dubstep Ring","duration":29},{"id":989214,"name":"Darte Pam Pam","duration":29},{"id":54371,"name":"I Like Chopin ( Techno )","duration":29},{"id":94010,"name":"CLUB CAN'T HANDLE ME","duration":17},{"id":913586,"name":"Te Rog Dulce","duration":2},{"id":1144876,"name":"Ameno","duration":9},{"id":176694,"name":"Dj-ringtone Mix-2","duration":29},{"id":915466,"name":"Dj Soniya Raaz","duration":28},{"id":1040141,"name":"Dj sava raluka aer","duration":13},{"id":951714,"name":"Best Rock Tune","duration":21},{"id":41775,"name":"party ala RC Week 213","duration":29},{"id":75272,"name":"Dj ringtone","duration":13},{"id":1006973,"name":"Invisible Android","duration":29},{"id":1041259,"name":"DJ MiSiek RingTone54","duration":20},{"id":838861,"name":"Super Dj Ringtone","duration":27},{"id":786475,"name":"Dj Ring","duration":24},{"id":888554,"name":"No1 Tune 2012","duration":28},{"id":1041287,"name":"DJ MiSiek ringtone62","duration":17},{"id":969039,"name":"Nil N Niki Dj Varun","duration":29},{"id":817843,"name":"Dj Beats 2010","duration":29},{"id":1161502,"name":"YoloTV som DJ","duration":18},{"id":1308110,"name":"Dj Mix","duration":13},{"id":42224,"name":"mayday - RC Week 217","duration":29},{"id":908067,"name":"Dj Punjabi Mix","duration":29},{"id":215331,"name":"Kabhie Kabhie Dj","duration":29},{"id":81487,"name":"TUJHE BHULA DIYA-RC WEEK 204","duration":27},{"id":60510,"name":"jazz ringtone","duration":9},{"id":65774,"name":"escape from tropics - RC Week 220","duration":29},{"id":913583,"name":"Mam Tatuat","duration":6},{"id":142535,"name":"New Dj Ringtone V2","duration":28},{"id":1357385,"name":"Ringtone 2010","duration":14},{"id":1042595,"name":"DJ MiSiek ringtone87","duration":29},{"id":128765,"name":"Best Dj","duration":26},{"id":962738,"name":"Mezara","duration":29},{"id":1146648,"name":"blazin","duration":29},{"id":331437,"name":"Dj Remix","duration":5},{"id":913585,"name":"O Ceva Roz Din Fe","duration":16},{"id":1041242,"name":"DJ MiSiek RingTone36","duration":28},{"id":1331818,"name":"Slow Motion Remix","duration":29},{"id":50847,"name":"Humanoid","duration":25},{"id":1151829,"name":"DJ SOBO - NOI","duration":26},{"id":1099065,"name":"Cool Ringtone Dj mix","duration":23},{"id":1148175,"name":"Insomnia 2017","duration":29},{"id":1157916,"name":"Dj Judi-Summer","duration":30},{"id":846014,"name":"Dj Chicken","duration":5},{"id":187086,"name":"Dj 2010","duration":6},{"id":989221,"name":"Te Comimos El Culo","duration":21},{"id":895580,"name":"Best 2012 Dj","duration":14},{"id":72426,"name":"Nokia Sms With DJ Beats (Ringtone)","duration":27},{"id":1148176,"name":"Stanga 2017","duration":14},{"id":810168,"name":"Full On Remix","duration":29},{"id":866494,"name":"Dj Sms Cool","duration":4},{"id":1280561,"name":"Mixed Loop","duration":27},{"id":895883,"name":"Drunkenmonkey","duration":13},{"id":1169723,"name":"Asugen ringtone","duration":30},{"id":369826,"name":"Dj Bucky Ringtone 4","duration":29},{"id":972147,"name":"Wah Do Them","duration":14},{"id":910081,"name":"Dj Remix","duration":18},{"id":1041211,"name":"DJ MiSiek RingTone10","duration":21},{"id":36010,"name":"new electro","duration":23},{"id":1140786,"name":"Wings","duration":29},{"id":1148895,"name":"DJ SOBO AUDI MUSIC","duration":22},{"id":1159743,"name":"Party On Remix","duration":17},{"id":1223829,"name":"Dj Theo","duration":16},{"id":991169,"name":"10000 Watt Dj Beat","duration":28},{"id":1156813,"name":"KTRL x STEEZ LOCKED","duration":27},{"id":834367,"name":"Dj-chiggywiggymp3","duration":16},{"id":1190985,"name":"Carlos --by Lvnttt","duration":28},{"id":1041241,"name":"DJ MiSiek RingTone35","duration":14},{"id":1160644,"name":"DJdaka-Kazes ne","duration":21},{"id":192874,"name":"Dj Beats","duration":14},{"id":1148897,"name":"DJ SOBO CHEIA","duration":29},{"id":1022045,"name":"beautiful ringtone","duration":29},{"id":989213,"name":"Dale Tra Dj Raymond","duration":29},{"id":843761,"name":"Phone Beats Ringtone","duration":27},{"id":853783,"name":"Dj Raaz Club Mix","duration":26},{"id":41915,"name":"escape from tropics - RC Week 220","duration":29},{"id":1010767,"name":"Gta","duration":19},{"id":42641,"name":"CLUB CAN'T HANDLE ME","duration":27},{"id":1257681,"name":"Dj Richy  Vick","duration":29},{"id":263299,"name":"Dj Sms","duration":9},{"id":70257,"name":"nokia sms with dj beat(ringtone)","duration":27},{"id":1168989,"name":"DJ Mole-TopotaMadre","duration":30},{"id":895515,"name":"Put Your Hands Up","duration":15},{"id":1150590,"name":"Kantik","duration":22},{"id":825981,"name":"2011 Trance","duration":29},{"id":834522,"name":"Na Na Na","duration":27},{"id":1160675,"name":"coco jambo 2k17","duration":15},{"id":1248938,"name":"Nokia Dj","duration":9},{"id":1256069,"name":"Dj Selma","duration":28},{"id":910080,"name":"Dj Mix","duration":28},{"id":1159855,"name":"Do It","duration":30},{"id":857419,"name":"Dj Rave","duration":22},{"id":1159683,"name":"Im stil gona send it","duration":3},{"id":1041252,"name":"DJ MiSiek RingTone47","duration":15},{"id":989208,"name":"A Darte Fuete","duration":16},{"id":1317636,"name":"Arabic Dj 2010","duration":29},{"id":1004731,"name":"Best Dj Scratch Mix","duration":29},{"id":989209,"name":"Boom Boom Dj Raymond","duration":15},{"id":1160643,"name":"DJdaka Divlje mirise","duration":30},{"id":1041255,"name":"DJ MiSiek RingTone50","duration":29},{"id":1052967,"name":"MEMEME Ringtone 2","duration":29},{"id":1159749,"name":"Fcukin Beats Remix","duration":17},{"id":913580,"name":"Apasa-l","duration":17},{"id":1353485,"name":"Full On Dj Club","duration":29},{"id":827756,"name":"Dj Effects","duration":25},{"id":230802,"name":"Amanda Superman Dj","duration":29},{"id":1164636,"name":"In The Clouds","duration":24},{"id":817814,"name":"No1 Turntable 2010","duration":17},{"id":989215,"name":"Fuerza Y Mana","duration":29},{"id":908207,"name":"Dj Effects","duration":25},{"id":84575,"name":"IBIZA - BIZA - RC Week 209","duration":30},{"id":1047898,"name":"Broken bones","duration":29},{"id":1244050,"name":"Dj Chicken 2","duration":26},{"id":1098591,"name":"DJ Army-Deli Et Beni","duration":29},{"id":1041293,"name":"DJ MiSiek ringtone66","duration":29},{"id":89420,"name":"Dj SMS","duration":3},{"id":1152565,"name":"DJ SOBO NE IMPACAM","duration":28},{"id":1004234,"name":"Dj Bass Ringtone","duration":29},{"id":1355727,"name":"Nowusee","duration":15},{"id":1042508,"name":"DJ MiSiek ringtone78","duration":28},{"id":22352,"name":"BEST DJ 2010","duration":29},{"id":824680,"name":"Dj Helicopter","duration":11},{"id":1041244,"name":"DJ MiSiek RingTone38","duration":29},{"id":350527,"name":"Dj Bucky Ringtone 2","duration":29},{"id":1154153,"name":"Sexy Grecco 04","duration":22},{"id":1359634,"name":"Animals Mix","duration":7},{"id":76262,"name":"vision - RC Week 200","duration":29},{"id":152303,"name":"Dj Sms Ringtone","duration":28},{"id":97755,"name":"X - Files Electro Remix - RC Week 193","duration":30},{"id":886462,"name":"Best Dj Scratch","duration":12},{"id":883857,"name":"B3st Ringtone","duration":29},{"id":853228,"name":"Dj Jaane Tu Mera Kya","duration":26},{"id":1160650,"name":"DJdaka-Despacito SRB","duration":22},{"id":875664,"name":"Awesome Ring Mix","duration":28},{"id":1041290,"name":"DJ MiSiek ringtone64","duration":16},{"id":1158077,"name":"Dj Slave-Spartakus","duration":29},{"id":1042507,"name":"DJ MiSiek ringtone77","duration":29},{"id":1160380,"name":"Mahadeva","duration":23},{"id":43172,"name":"Bin Tere Sanam Trance","duration":28},{"id":1152967,"name":"Let Me Love You","duration":19},{"id":1262282,"name":"Dj Mix By Nissan","duration":29},{"id":913617,"name":"Poate-i Tuica","duration":4},{"id":219638,"name":"Dj Gruv","duration":28},{"id":294881,"name":"Dj Ringtone","duration":17},{"id":1042597,"name":"DJ MiSiek ringtone89","duration":12},{"id":42466,"name":"Fix Up Dj Pankaj(CReZZy Mix)","duration":29},{"id":854556,"name":"Dj Ringtone","duration":10},{"id":787581,"name":"Dj Mix 40","duration":15},{"id":93929,"name":"Arabic party beats - Rc week 209","duration":29},{"id":943098,"name":"Best Dj","duration":28},{"id":1357374,"name":"Lg Ringtone","duration":3},{"id":193828,"name":"Action","duration":20},{"id":1164100,"name":"AttackONTitanRemix","duration":29},{"id":328757,"name":"Airtel Dj Mix","duration":27},{"id":72061,"name":"message aayo","duration":11},{"id":1041249,"name":"DJ MiSiek RingTone43","duration":29},{"id":193940,"name":"Dj Come","duration":29},{"id":1041292,"name":"DJ MiSiek ringtone65","duration":15},{"id":895321,"name":"Insomnia","duration":17},{"id":913603,"name":"Ce Fraiere","duration":7},{"id":186153,"name":"Dj Ringtone","duration":29},{"id":144038,"name":"Best Dj Ringtone","duration":28},{"id":1041289,"name":"DJ MiSiek ringtone63","duration":16},{"id":1041247,"name":"DJ MiSiek RingTone41","duration":14},{"id":1156094,"name":"FAINT DJ SHENKO","duration":16},{"id":32466,"name":"message aayo","duration":11},{"id":282926,"name":"Dj Maahi Eco","duration":22},{"id":1135319,"name":"dj iphone - sanane","duration":21},{"id":148384,"name":"Dj Annie","duration":28},{"id":1042598,"name":"DJ MiSiek ringtone90","duration":14},{"id":913620,"name":"Scream","duration":1},{"id":65952,"name":"no vocal mix - RC Week 216","duration":29},{"id":1152564,"name":"DJ SOBO SA TE PIERD","duration":29},{"id":1161440,"name":"Cool Ringtone","duration":21},{"id":981916,"name":"Dj Varun K","duration":29},{"id":896108,"name":"Dj Mr47","duration":29},{"id":790901,"name":"Dj China","duration":29},{"id":1197720,"name":"Dj-erick Millenium","duration":29},{"id":1163451,"name":"Gold Dust","duration":27},{"id":1163165,"name":"YUI - Again Dubstep","duration":25},{"id":66521,"name":"Saxo Disc - RC Week 211","duration":30},{"id":908204,"name":"Best Dj","duration":26},{"id":1284429,"name":"Cool Ringtone","duration":24},{"id":75260,"name":"New Dj Ringtone","duration":28},{"id":9209,"name":"Lick The Lollipop - DJ Showdown 4","duration":59},{"id":67276,"name":"TUJHE BHULA DIYA-RC WEEK 204","duration":27},{"id":1041257,"name":"DJ MiSiek RingTone52","duration":28},{"id":788655,"name":"Nokia Cut Up","duration":7}]}