{"queryTime":"0 Seconds","totalCount":848,"pageNumber":1,"perPage":200,"pageCount":200,"data":[{"id":1156323,"name":"Sinatra Witchcraft","duration":30},{"id":153778,"name":"Spanish Solo","duration":29},{"id":162812,"name":"Superb Guitar","duration":29},{"id":127640,"name":"Performers Talent","duration":16},{"id":152184,"name":"Piano Melody","duration":24},{"id":113870,"name":"Love Guitar","duration":29},{"id":173066,"name":"Very Gentle Romantic","duration":27},{"id":778607,"name":"Love Is Blue Violin","duration":28},{"id":1257402,"name":"Classical Mix 1","duration":29},{"id":123884,"name":"Titanic Touch","duration":28},{"id":153760,"name":"Calls Love","duration":26},{"id":162680,"name":"Awesome Guitar","duration":29},{"id":867567,"name":"Waltz","duration":12},{"id":861059,"name":"Love","duration":20},{"id":992716,"name":"Autobot","duration":14},{"id":128821,"name":"Classic Star Mix","duration":29},{"id":134336,"name":"Obsession","duration":27},{"id":53020,"name":"Flute Ringtone","duration":28},{"id":135281,"name":"Style Guitar","duration":28},{"id":128467,"name":"Soft Violin","duration":26},{"id":998615,"name":"Piano Ringtone","duration":29},{"id":925013,"name":"Romantic Flute","duration":28},{"id":127981,"name":"Chinese Rose","duration":14},{"id":1125345,"name":"ghostbuster c64 2016","duration":4},{"id":152440,"name":"Super Guitar","duration":27},{"id":128591,"name":"Beautiful  Romantic","duration":25},{"id":126634,"name":"Feel The Love","duration":21},{"id":166590,"name":"Bolly Beats","duration":18},{"id":127511,"name":"Nokia Guitar","duration":21},{"id":41611,"name":"no vocal mix - RC Week 216","duration":29},{"id":135267,"name":"Guitar On Fire","duration":27},{"id":128388,"name":"Beautiful Ringtone","duration":21},{"id":781668,"name":"Welcome Love","duration":27},{"id":124901,"name":"Guitar By Melody","duration":27},{"id":343200,"name":"Most Romantic","duration":18},{"id":152484,"name":"Sweet Melodious Mix","duration":27},{"id":1153068,"name":"Classical Remix","duration":30},{"id":921670,"name":"Bagpipes Nice","duration":25},{"id":152861,"name":"Pretty Music","duration":27},{"id":128409,"name":"Flute Song","duration":26},{"id":114147,"name":"Classical Guitar","duration":28},{"id":287079,"name":"Bach To The Future","duration":26},{"id":125383,"name":"Lovely Flute","duration":15},{"id":106463,"name":"Stranger Awaits","duration":28},{"id":127799,"name":"Magical Music 13","duration":23},{"id":135653,"name":"Classical Ringtone","duration":29},{"id":128051,"name":"Juliet  Romeo","duration":29},{"id":128410,"name":"Romantic Love","duration":28},{"id":124188,"name":"Sweet Classic","duration":28},{"id":128295,"name":"Good Melody","duration":29},{"id":151419,"name":"Lovely Music","duration":28},{"id":154074,"name":"Lovely Music","duration":20},{"id":126396,"name":"Lovely Sound","duration":12},{"id":287892,"name":"Felds Nokia Tune","duration":9},{"id":867183,"name":"Love Story Instrumen","duration":27},{"id":183589,"name":"Titanic Bells","duration":28},{"id":927764,"name":"Guitar Classical","duration":25},{"id":1024179,"name":"Beautiful Alarm","duration":29},{"id":778453,"name":"I Love U","duration":29},{"id":128803,"name":"Love Ringtone Mp3","duration":26},{"id":162890,"name":"Awesome Guitar","duration":14},{"id":183280,"name":"Beautiful Vertu","duration":18},{"id":173299,"name":"Feel Lyove","duration":21},{"id":114544,"name":"Love Guitar","duration":5},{"id":128046,"name":"Beautiful Chords","duration":29},{"id":127606,"name":"Romantic Flute","duration":28},{"id":163087,"name":"Spanish Guitar","duration":26},{"id":154080,"name":"Sweet Music","duration":27},{"id":128759,"name":"Love Story","duration":27},{"id":127244,"name":"Alexandra","duration":27},{"id":127663,"name":"Guitar Mix","duration":25},{"id":127792,"name":"Magic Music 24","duration":22},{"id":162498,"name":"Beautiful Guitar","duration":19},{"id":126066,"name":"Yes Its Guitar","duration":29},{"id":16978,"name":"Christmas classical mix RC Week 94","duration":28},{"id":126174,"name":"Love Mix","duration":28},{"id":128674,"name":"Classical Beauty","duration":19},{"id":113975,"name":"Melody Guitar","duration":29},{"id":128386,"name":"Violin For Arsam","duration":28},{"id":127647,"name":"Instrumental","duration":22},{"id":128419,"name":"I Miss You","duration":29},{"id":154134,"name":"Classic Fluet","duration":18},{"id":344864,"name":"Ave Maria Ringtone","duration":20},{"id":128374,"name":"Titanic Piano","duration":18},{"id":65964,"name":"Classical Vs Hardstyle RC Week 216","duration":29},{"id":127349,"name":"Hello","duration":27},{"id":1124934,"name":"A-Team c64 2016","duration":14},{"id":154197,"name":"Romantic Love","duration":16},{"id":128849,"name":"Love Music","duration":29},{"id":126878,"name":"Lovely Tone","duration":21},{"id":113988,"name":"Fav Guitar 3","duration":20},{"id":125470,"name":"Heaven","duration":29},{"id":806774,"name":"Classical Sms","duration":10},{"id":127904,"name":"Good Bye My Love","duration":20},{"id":113495,"name":"Violin Tune Mix","duration":19},{"id":154043,"name":"Egyptian Cool","duration":29},{"id":127390,"name":"Nice Sound","duration":29},{"id":126126,"name":"Sad Piano","duration":19},{"id":153390,"name":"Beauty Bird","duration":28},{"id":113633,"name":"Nice Guitar","duration":21},{"id":127564,"name":"Gipson Best Guitar","duration":27},{"id":127384,"name":"Beautiful One","duration":28},{"id":1123897,"name":"Mr Mephisto c64","duration":29},{"id":124952,"name":"Guitar Clap Mix","duration":26},{"id":124903,"name":"Titanic Played On Pi","duration":27},{"id":126861,"name":"Violin For Anne","duration":28},{"id":128805,"name":"Babak Bayat","duration":18},{"id":127259,"name":"Romina","duration":19},{"id":127695,"name":"Titanic Bells","duration":28},{"id":113949,"name":"Guitar Soul","duration":21},{"id":105573,"name":"Sweet Classic Mix","duration":28},{"id":151723,"name":"Love Piano","duration":12},{"id":1123893,"name":"Krakout c64","duration":13},{"id":288002,"name":"Isfahani","duration":18},{"id":153316,"name":"Romantic Enchanted","duration":28},{"id":128429,"name":"Vertu Lock","duration":17},{"id":171459,"name":"Music Instrument","duration":28},{"id":123817,"name":"Sweet Classic","duration":28},{"id":872349,"name":"Remix Standard Tone","duration":2},{"id":127486,"name":"Sweet Classic","duration":28},{"id":1005024,"name":"Nokia Ringtone","duration":17},{"id":993085,"name":"Shampoo","duration":8},{"id":183440,"name":"Love Story Cool","duration":26},{"id":1123898,"name":"Crazy Comets c64","duration":23},{"id":150772,"name":"Classical Ringtone","duration":22},{"id":863475,"name":"Lovely Flute","duration":26},{"id":153717,"name":"Love Theme","duration":24},{"id":860116,"name":"Lovely Guitar","duration":28},{"id":127814,"name":"Love Birds","duration":15},{"id":128404,"name":"Beautiful Solo","duration":23},{"id":343355,"name":"Scottish Fairytale","duration":29},{"id":152154,"name":"Romantic Tone","duration":20},{"id":105801,"name":"Aap Jaisa Koi","duration":29},{"id":287924,"name":"Titanic Remix Beauty","duration":28},{"id":135303,"name":"Guitar Beauty","duration":22},{"id":127356,"name":"Sweet Sound","duration":28},{"id":127290,"name":"Russian Dance Beauty","duration":21},{"id":861289,"name":"Sweet Melody","duration":27},{"id":113879,"name":"Nice Guitar","duration":27},{"id":127661,"name":"007 Beauty","duration":23},{"id":127513,"name":"Titanic","duration":29},{"id":151429,"name":"Flute Love","duration":29},{"id":924994,"name":"Earth Classical","duration":27},{"id":993279,"name":"Beautiful Love","duration":15},{"id":1123894,"name":"Dynamite Dan c64","duration":15},{"id":824927,"name":"Nasirdddd","duration":22},{"id":113965,"name":"Ultimate Guitare","duration":25},{"id":128680,"name":"Noel Ringtone","duration":27},{"id":288794,"name":"O Vos Omnes","duration":29},{"id":127939,"name":"You Played On Flute","duration":28},{"id":128020,"name":"Nice Flute","duration":26},{"id":1208441,"name":"Peanuts 1","duration":25},{"id":126271,"name":"Piano Mix","duration":29},{"id":128424,"name":"Love Song","duration":19},{"id":126587,"name":"Love Color","duration":8},{"id":127878,"name":"Birds Music","duration":27},{"id":1012238,"name":"Guitar 2013 Tone","duration":19},{"id":153560,"name":"For Love","duration":29},{"id":127898,"name":"Vertu 4","duration":26},{"id":128620,"name":"Happy Days","duration":20},{"id":366913,"name":"Guitar Sound","duration":25},{"id":966422,"name":"Melody Ringtone","duration":28},{"id":83774,"name":"Beautiful Ringtone","duration":29},{"id":154056,"name":"Romantic Music","duration":28},{"id":367327,"name":"Sweet Flute","duration":29},{"id":127261,"name":"Best Guitar","duration":28},{"id":778219,"name":"Cool Airtell Rington","duration":19},{"id":287483,"name":"Ever Green Ringtone","duration":29},{"id":1125333,"name":"Thanatos c64 2016","duration":19},{"id":127802,"name":"Magical Music 11","duration":16},{"id":58198,"name":"Toccatta and Fugue","duration":17},{"id":183145,"name":"Calm Music","duration":23},{"id":1196751,"name":"Tictac","duration":28},{"id":113622,"name":"Wonderful Guitar","duration":20},{"id":128361,"name":"Cool Guitar","duration":21},{"id":1127644,"name":"Maple Leaf Rag 8-bit","duration":16},{"id":123876,"name":"Love Mix","duration":28},{"id":181076,"name":"Slow Melody","duration":29},{"id":126060,"name":"Super Solo On Guitar","duration":18},{"id":128220,"name":"Wonderful Music 2","duration":27},{"id":778229,"name":"Cool Mix Ringtone","duration":28},{"id":126885,"name":"Crystal Music","duration":28},{"id":1016847,"name":"Dreamscape Ringtone","duration":29},{"id":162656,"name":"Love Guitar","duration":13},{"id":153262,"name":"Nice Sounds","duration":26},{"id":983627,"name":"The Best Ringtone","duration":18},{"id":15908,"name":"nice waltz","duration":14},{"id":1123889,"name":"Ms Pac Man c64","duration":4},{"id":778204,"name":"Cool Love Ringtone","duration":22},{"id":128843,"name":"Romantic Music","duration":26},{"id":15225,"name":"Bansuri Ringtone","duration":27},{"id":121450,"name":"Love Story Instrumen","duration":27},{"id":1123891,"name":"Super Pipeline 2 c64","duration":25},{"id":778441,"name":"Miracle Of Love","duration":29},{"id":114133,"name":"Guitar Acoustic","duration":29},{"id":287529,"name":"Hot Violin","duration":27},{"id":288731,"name":"Raymonda Glazunov","duration":29},{"id":127929,"name":"Bird Melody","duration":55},{"id":128810,"name":"Ballerina Ringtone M","duration":27},{"id":153424,"name":"Romantic Solo","duration":20}]}