{"queryTime":"0 Seconds","totalCount":406,"pageNumber":1,"perPage":200,"pageCount":200,"data":[{"id":1269606,"name":"No1bassss","duration":24},{"id":1106718,"name":"Booty Man","duration":9},{"id":849709,"name":"Full Bass Hot","duration":28},{"id":1085131,"name":"Xbass","duration":29},{"id":196026,"name":"Baby Got Back","duration":29},{"id":1157184,"name":"DEWAXED - NO RETREAT","duration":30},{"id":864500,"name":"Dance Bass Ringtone","duration":28},{"id":1166779,"name":"MIA Ringtone","duration":30},{"id":926298,"name":"Techno Mix","duration":12},{"id":126988,"name":"Bass Melody","duration":27},{"id":998965,"name":"Pump My Bass","duration":27},{"id":222841,"name":"Disco Bass","duration":28},{"id":867736,"name":"Requiem","duration":29},{"id":1342061,"name":"Bass Ringtone","duration":29},{"id":1222967,"name":"Spl 54321","duration":5},{"id":1160476,"name":"Arab Money Trap","duration":29},{"id":1156773,"name":"Boris","duration":30},{"id":804449,"name":"Arabic Style","duration":22},{"id":1155609,"name":"Yasa Bana","duration":27},{"id":1351290,"name":"Techno Bass","duration":14},{"id":915726,"name":"Bass 4","duration":28},{"id":843171,"name":"Dj No1 Effect 2011","duration":14},{"id":1044243,"name":"Best House Ringtone","duration":14},{"id":1151345,"name":"8 Bit Game Ringtone","duration":30},{"id":935605,"name":"Gangster Bass","duration":22},{"id":1095129,"name":"New Ringtone ed17","duration":29},{"id":916916,"name":"Bass 9","duration":1},{"id":840342,"name":"Best 2011 Bass Ring","duration":28},{"id":1204019,"name":"Strange Peace","duration":29},{"id":93819,"name":"I Remember The Future - Rc week 210","duration":29},{"id":1085653,"name":"ExCiSiOn","duration":29},{"id":838076,"name":"Omfg Omfg","duration":16},{"id":1086331,"name":"Bass ringtone","duration":29},{"id":928760,"name":"Bass Ringtone","duration":22},{"id":836946,"name":"No1 Ringtone 2011v2","duration":28},{"id":1028183,"name":"Trap Mega Bass","duration":25},{"id":1155102,"name":"Aura","duration":30},{"id":1115916,"name":"The Air","duration":29},{"id":109746,"name":"Best Flute And Beats","duration":23},{"id":803680,"name":"Djjjj 2010","duration":29},{"id":1171388,"name":"Game of Thrones deep","duration":24},{"id":1357683,"name":"Nfs Mix 2011","duration":29},{"id":1145554,"name":"Ark Under Water","duration":29},{"id":41148,"name":"Airtel Bass Mix ::: Mp3 Ringtone","duration":29},{"id":1220495,"name":"Cool Song","duration":29},{"id":1158671,"name":"2017 Best Melody","duration":30},{"id":1158317,"name":"Willy William-Voodoo","duration":19},{"id":1145008,"name":"Bass thump","duration":18},{"id":830212,"name":"Sk-tone","duration":29},{"id":187351,"name":"Best Bass Ever","duration":28},{"id":188173,"name":"Bass 2 Remix Cool","duration":29},{"id":928756,"name":"2012 Ringtone","duration":27},{"id":851795,"name":"Nokiabassh","duration":25},{"id":1014444,"name":"Bass Sms New","duration":7},{"id":995990,"name":"Bass Sms Tone","duration":8},{"id":1001313,"name":"Best-bass-ring","duration":28},{"id":1119058,"name":"dr sound big bass","duration":29},{"id":1050929,"name":"Bricks TRAP--BASS","duration":27},{"id":197320,"name":"Sad Song 2 Mix Bass","duration":23},{"id":1151679,"name":"No Flex Zone","duration":28},{"id":254549,"name":"Cool Mix","duration":28},{"id":1085655,"name":"Brutal","duration":29},{"id":1019112,"name":"Where Is The Beat","duration":27},{"id":1357653,"name":"Bass Ick Beast","duration":25},{"id":1157486,"name":"BOOTY SNAP DUBSTEP","duration":30},{"id":1130133,"name":"Dreamland ringtone","duration":11},{"id":1242983,"name":"Black Intro","duration":13},{"id":804231,"name":"Effects 2010","duration":9},{"id":1288014,"name":"Best Ringtone 2009","duration":29},{"id":967006,"name":"Contrastic Ringtone","duration":29},{"id":874137,"name":"Hard Electric","duration":28},{"id":1085652,"name":"PentaKill","duration":29},{"id":803790,"name":"Dynamic Bass","duration":28},{"id":811439,"name":"Perfect Violin 2010","duration":29},{"id":1262970,"name":"Awesome Bass 2009","duration":28},{"id":997031,"name":"Ar Rehman Bass","duration":19},{"id":1150104,"name":"Bass test","duration":29},{"id":1114566,"name":"Very Awesome RB TGM","duration":29},{"id":1145959,"name":"Scrapyard","duration":29},{"id":1151376,"name":"Impending Doom Dark","duration":30},{"id":1247338,"name":"Trance 2009","duration":29},{"id":1017125,"name":"Trap And Bass 2013","duration":28},{"id":1124154,"name":"bass ringtone","duration":29},{"id":857420,"name":"3d Bass Remix","duration":28},{"id":1145767,"name":"Pure Bass","duration":29},{"id":1218517,"name":"High Quality Sms","duration":4},{"id":329154,"name":"Best Ever Bass","duration":14},{"id":1119063,"name":"dr sound torres bass","duration":16},{"id":188164,"name":"Bass 1 Remix Cool","duration":29},{"id":1115015,"name":"Dupcity","duration":16},{"id":1156479,"name":"Bubble Bass","duration":28},{"id":796429,"name":"Techno Sms","duration":5},{"id":1016398,"name":"Supa Dubstep Track 1","duration":12},{"id":1166605,"name":"Inkyz - Shiva RING","duration":30},{"id":324740,"name":"Izno","duration":17},{"id":1236771,"name":"D-fly","duration":16},{"id":352681,"name":"Bass Mix","duration":29},{"id":299063,"name":"Bass Test 2","duration":29},{"id":1335185,"name":"Degital-sms","duration":15},{"id":1155323,"name":"Yay House","duration":22},{"id":1218973,"name":"Bass Message","duration":7},{"id":1160477,"name":"Massacre Biz Trap","duration":29},{"id":815943,"name":"Best Ringtone Ever","duration":28},{"id":1253778,"name":"Climax In My Head","duration":29},{"id":1148220,"name":"snowcat Intro","duration":30},{"id":1006163,"name":"Electro Dj","duration":21},{"id":1151346,"name":"Dark Trap Synth","duration":30},{"id":1157676,"name":"Stay For It","duration":30},{"id":203614,"name":"Dog Remix Dj Beats","duration":16},{"id":1085510,"name":"House Ringtone","duration":27},{"id":1155653,"name":"UATY-Beat","duration":28},{"id":964745,"name":"Orient","duration":18},{"id":1095124,"name":"New Ringtone ed16","duration":29},{"id":44134,"name":"2010 Best Sound Effect","duration":25},{"id":804475,"name":"Your Boyfriend","duration":7},{"id":1041001,"name":"Rock Ringtone 2014","duration":22},{"id":1172016,"name":"Bass powerfull","duration":15},{"id":797412,"name":"Gta Iv Remix","duration":29},{"id":795065,"name":"Perfect Mix 2010","duration":29},{"id":1021286,"name":"New 2013 BaSs HiGh","duration":29},{"id":47084,"name":"YOU WILL ROCK THE HEAVEN-RC WEEK 130","duration":27},{"id":937029,"name":"3d Bass Ringtone","duration":28},{"id":800559,"name":"Cool Ringtone 2010","duration":29},{"id":796927,"name":"Hard Bass 2010","duration":28},{"id":1149239,"name":"Drop That Bass","duration":29},{"id":1244856,"name":"Feel The Vibe","duration":29},{"id":1341748,"name":"So Untrue","duration":29},{"id":1151378,"name":"Club Beats","duration":29},{"id":1261747,"name":"Dnb Ringtone","duration":20},{"id":860015,"name":"Guitar Tone","duration":27},{"id":1166892,"name":"Roadman Shaq","duration":10},{"id":1051349,"name":"Eliminate -Red Light","duration":29},{"id":921784,"name":"Dnb Theme Song","duration":28},{"id":1326341,"name":"Explosion Ringtone","duration":29},{"id":916730,"name":"Bass 5","duration":20},{"id":1310107,"name":"The Best Ringtone","duration":28},{"id":807775,"name":"Perfect Bass 2010","duration":29},{"id":952994,"name":"Bass Beat","duration":22},{"id":1089632,"name":"Determine","duration":29},{"id":866548,"name":"Super Ringtone 2011","duration":28},{"id":1145311,"name":"Delicious","duration":29},{"id":173825,"name":"Bass","duration":29},{"id":972087,"name":"Bass Ringtone","duration":13},{"id":1031234,"name":"SWAG","duration":29},{"id":59397,"name":"3D Bass Mix ::: Mp3 Ringtone","duration":28},{"id":384746,"name":"2011 Best Ringtone","duration":28},{"id":1086007,"name":"Arabic-Bass","duration":29},{"id":118326,"name":"3d Bass Mix Ringtone","duration":28},{"id":1026534,"name":"Dj Omar- Raise 2moon","duration":29},{"id":349871,"name":"Bass","duration":29},{"id":1046445,"name":"Big Things","duration":29},{"id":1040429,"name":"Popcorn","duration":27},{"id":961737,"name":"Great Chill Dubstep","duration":29},{"id":1160479,"name":"Do You TroyBoi","duration":29},{"id":956864,"name":"Bass Sms Tone 2012","duration":8},{"id":1083945,"name":"Ruffneck Ringtone","duration":28},{"id":845367,"name":"Awesome Tone 2011","duration":7},{"id":804453,"name":"Ahhhhh","duration":7},{"id":916731,"name":"Bass 7","duration":28},{"id":1357715,"name":"Vladik Moscow","duration":7},{"id":362682,"name":"Bass Slap Guitar","duration":1},{"id":850131,"name":"Best Ring","duration":7},{"id":119739,"name":"Drunnbass","duration":14},{"id":1159186,"name":"Wicked Ones-Dorothy","duration":27},{"id":1041540,"name":"Space Catz- DB","duration":29},{"id":904906,"name":"2012 Best Ringtone","duration":25},{"id":998966,"name":"Pump My Bass","duration":28},{"id":1155103,"name":"octogon","duration":30},{"id":914191,"name":"Shorty Prevails","duration":10},{"id":955356,"name":"Bass Vs Horror","duration":10},{"id":214452,"name":"Best Ringtone","duration":26},{"id":888554,"name":"No1 Tune 2012","duration":28},{"id":1159752,"name":"XTC Remix","duration":30},{"id":875692,"name":"2011 Best Bass","duration":28},{"id":1166889,"name":"Tarauaca","duration":30},{"id":1152354,"name":"Wildcard","duration":30},{"id":1041390,"name":"260","duration":24},{"id":1267714,"name":"Bass Floor Dance","duration":26},{"id":1160319,"name":"Qarabag BIZ Trap","duration":22},{"id":1154375,"name":"SUPER 2017 DISCO TR","duration":29},{"id":953360,"name":"Super Sweet 2012","duration":29},{"id":962990,"name":"Bassline","duration":13},{"id":804443,"name":"Sweet Babe","duration":29},{"id":1128834,"name":"Metal - Cut It","duration":29},{"id":967039,"name":"Airtel Bass Mix","duration":28},{"id":1153211,"name":"CheekiBreekiHardbass","duration":22},{"id":154756,"name":"Base-cl - Ringtone","duration":20},{"id":1251266,"name":"High Contrast","duration":29},{"id":1164532,"name":"Drop The Bass","duration":30},{"id":774973,"name":"Cool Ringtone","duration":27},{"id":804448,"name":"Indian Style 2010","duration":29},{"id":1042036,"name":"Bass Dance Ringtone","duration":29},{"id":1038604,"name":"Bass Destination","duration":17},{"id":1362187,"name":"Alien 3","duration":18},{"id":838361,"name":"New Bass Mix 2011","duration":14},{"id":1259232,"name":"Ringtone","duration":28},{"id":43082,"name":"The Drill - Remix","duration":27},{"id":1163074,"name":"ASHES-BASS BOOST","duration":22},{"id":1251645,"name":"Dr Kucho","duration":29},{"id":988417,"name":"Dubstep Ringtone","duration":29}]}