{"queryTime":"1 Seconds","totalCount":635,"pageNumber":1,"perPage":200,"pageCount":200,"data":[{"id":944112,"name":"Goundamani","duration":4},{"id":948101,"name":"Kaathal Kasakuthaiya","duration":28},{"id":924006,"name":"Do It All Over Again","duration":13},{"id":251826,"name":"Funny Carrot","duration":11},{"id":1044597,"name":"Skype Ring","duration":15},{"id":1352642,"name":"Periya Samacharam","duration":2},{"id":930996,"name":"Santhanam Dialogue","duration":6},{"id":1107828,"name":"Pardon Me Txt Msg","duration":8},{"id":1353816,"name":"Laugh Mmax","duration":9},{"id":948343,"name":"T Rajendhar Love","duration":14},{"id":794114,"name":"Twinkle Star","duration":15},{"id":1269521,"name":"Amusing","duration":10},{"id":1166437,"name":"Booty Bounce","duration":5},{"id":1220752,"name":"Funny Loser","duration":9},{"id":1205280,"name":"Homer Spider Pig","duration":16},{"id":291980,"name":"Abbaya Abbaya","duration":18},{"id":1089867,"name":"Friday - Knocked out","duration":8},{"id":291251,"name":"Best Ringtone Ever","duration":28},{"id":1102997,"name":"Escroto Ball","duration":25},{"id":250987,"name":"Rancid Rasudy","duration":27},{"id":1261440,"name":"Gone Mad","duration":29},{"id":1089859,"name":"Friday - Reverend","duration":5},{"id":943898,"name":"Goundamani","duration":26},{"id":292519,"name":"Funny-funny Mix","duration":28},{"id":1158790,"name":"Big and Chunky","duration":30},{"id":1210002,"name":"Baby Cry","duration":29},{"id":1089853,"name":"Friday - Goam","duration":2},{"id":847989,"name":"Vadivel Dailogue","duration":10},{"id":346802,"name":"Na Na Na Na Na","duration":24},{"id":1124403,"name":"El Orangutan","duration":7},{"id":1039817,"name":"Funny walrus sound","duration":12},{"id":174703,"name":"Funny Funny","duration":28},{"id":1090131,"name":"Chris Farley - ElNin","duration":21},{"id":263586,"name":"Kick Telugu","duration":19},{"id":181226,"name":"Spongebob","duration":29},{"id":328586,"name":"Vada Pochae","duration":1},{"id":1270435,"name":"Tantar Fart","duration":4},{"id":159337,"name":"Adhi Comedy Telugu","duration":26},{"id":1216033,"name":"E Chikne","duration":3},{"id":1123995,"name":"Pirates Dance 2016","duration":23},{"id":345736,"name":"Funny Sound","duration":13},{"id":1189442,"name":"Eh Ca Sonne","duration":7},{"id":788684,"name":"Where Are You","duration":14},{"id":916512,"name":"A For Aapu","duration":5},{"id":1209756,"name":"Oh Great A Text Msg","duration":3},{"id":1004375,"name":"Elena Vaenge Msg","duration":20},{"id":251760,"name":"Funny Man","duration":20},{"id":1352726,"name":"Yahoooooo Msg Tone","duration":3},{"id":1051627,"name":"FunnyRingtone","duration":11},{"id":1358138,"name":"Chinese Ringtone","duration":9},{"id":1353059,"name":"Pick Up Ur Phone","duration":29},{"id":328398,"name":"Austin Powers Phone","duration":2},{"id":1124002,"name":"Pio Pio Pa","duration":12},{"id":780843,"name":"Someone Is Calling U","duration":14},{"id":251744,"name":"Very Funny Baby","duration":27},{"id":1098563,"name":"WTH is that shet","duration":21},{"id":1362956,"name":"Benny","duration":16},{"id":1090128,"name":"Chris Farley - Chipn","duration":5},{"id":1352727,"name":"Zoo Zoo Laugh","duration":10},{"id":1090136,"name":"Chris Farley - Lay","duration":4},{"id":251833,"name":"Funny Sound","duration":29},{"id":858536,"name":"Alright Alright","duration":5},{"id":938359,"name":"Unblowupable","duration":11},{"id":203342,"name":"Romio","duration":28},{"id":1089863,"name":"Friday - You a hype","duration":16},{"id":1208754,"name":"Telefon","duration":13},{"id":916295,"name":"Ha Ha Ha","duration":8},{"id":293160,"name":"Bajega","duration":2},{"id":175466,"name":"Guitar Burp","duration":9},{"id":250949,"name":"Venky Telugu","duration":29},{"id":967187,"name":"Rango Johny Deep","duration":4},{"id":290826,"name":"Sutta","duration":18},{"id":943895,"name":"Santhanam","duration":20},{"id":1344568,"name":"Change The Ringtone","duration":8},{"id":1324042,"name":"Wah Wah Waaah","duration":4},{"id":291735,"name":"Dakkalti Mssg","duration":5},{"id":1090130,"name":"Chris Farley - Cpt","duration":7},{"id":171550,"name":"Too Funny","duration":25},{"id":943866,"name":"Vadivelu","duration":8},{"id":1162469,"name":"And His Name Is","duration":14},{"id":1220117,"name":"Nokia 1100 Remix","duration":11},{"id":1263025,"name":"Sms Falling Tone","duration":3},{"id":1247769,"name":"Pig","duration":7},{"id":1345663,"name":"Vadivel Punch","duration":2},{"id":160161,"name":"Choodu Telugu Comedy","duration":16},{"id":1135521,"name":"WobbleTrust","duration":27},{"id":368616,"name":"Donaldduck 1","duration":17},{"id":291478,"name":"Elvis","duration":29},{"id":293144,"name":"Indo Bond007 320kbps","duration":28},{"id":292549,"name":"Funny Mix","duration":15},{"id":330140,"name":"Advice Pannura","duration":4},{"id":348077,"name":"Pets Mix","duration":7},{"id":860313,"name":"Crazy Horse","duration":9},{"id":942041,"name":"Denise Ringtone","duration":29},{"id":929036,"name":"Santhanam Dialogue","duration":23},{"id":904930,"name":"New Fanta 2012","duration":29},{"id":1353074,"name":"Appu Song Centiment","duration":28},{"id":1235325,"name":"Pink Panther-unikz","duration":9},{"id":859569,"name":"Wannawhoopesomebod","duration":16},{"id":173499,"name":"Infidel Ringtone","duration":24},{"id":806392,"name":"Borat Song","duration":25},{"id":1259246,"name":"Ringtone","duration":7},{"id":1210003,"name":"Baby Laugh Child","duration":20},{"id":253111,"name":"Cool Ringtone","duration":29},{"id":251745,"name":"Too Funny","duration":25},{"id":368184,"name":"Musical Dog","duration":28},{"id":797034,"name":"Funniest Ringtone","duration":29},{"id":1352614,"name":"Aasa Dosai","duration":21},{"id":292025,"name":"En Soga Kadhai Kelu","duration":20},{"id":251679,"name":"Evil Barber","duration":6},{"id":1238323,"name":"Wife Alert","duration":20},{"id":1171814,"name":"Poupiepickup","duration":29},{"id":171505,"name":"Very Funny","duration":3},{"id":1362963,"name":"Shortest Funny Tone","duration":5},{"id":292219,"name":"Looneytoons","duration":25},{"id":944115,"name":"Vadivelu","duration":11},{"id":944120,"name":"Vadivelu","duration":12},{"id":346721,"name":"Vadivel New","duration":7},{"id":156147,"name":"Ha Ha Ha Ha Ha","duration":13},{"id":1089860,"name":"Friday - Pfft","duration":4},{"id":943877,"name":"Tamil Dialogue","duration":19},{"id":944122,"name":"Vadivelu","duration":2},{"id":290327,"name":"Namakam","duration":3},{"id":865537,"name":"Titanic Funny","duration":28},{"id":943891,"name":"Vadivelu","duration":4},{"id":1089866,"name":"Friday - Evil lurks","duration":9},{"id":1352641,"name":"Paatukaran Bgm","duration":10},{"id":904931,"name":"New Fanta 2012","duration":29},{"id":1200536,"name":"Posse","duration":6},{"id":250407,"name":"Oorumi Melam","duration":2},{"id":944108,"name":"Santhanam","duration":5},{"id":253428,"name":"Animal Mix","duration":7},{"id":169131,"name":"Funny Ringtone","duration":11},{"id":1352640,"name":"Opening Good","duration":3},{"id":1195601,"name":"Speak Pineapple","duration":18},{"id":973057,"name":"Sacry Wolf Sms","duration":4},{"id":1090140,"name":"Chris Farley - smog2","duration":4},{"id":1123901,"name":"A Mover el Culo 2016","duration":19},{"id":330652,"name":"Kiss Tone","duration":3},{"id":801624,"name":"Comedy Ringtone","duration":15},{"id":1089852,"name":"Friday - Felisha","duration":16},{"id":933734,"name":"Santhanam Girl","duration":12},{"id":1001947,"name":"3azl Elbanat","duration":6},{"id":1090137,"name":"Chris Farley - Sause","duration":10},{"id":310507,"name":"Puttina Roju Telugu","duration":11},{"id":831878,"name":"All The Best","duration":22},{"id":943871,"name":"Vadivelu","duration":4},{"id":916524,"name":"Chutney Finder","duration":2},{"id":290861,"name":"The Funny Fart","duration":26},{"id":963274,"name":"Were Fresh","duration":17},{"id":930565,"name":"Valaipalam Ok Ok","duration":16},{"id":253347,"name":"Funny New Beautiful","duration":8},{"id":847806,"name":"Arab Ringtone","duration":28},{"id":993775,"name":"Honey Bunny - Idea","duration":29},{"id":1332661,"name":"Vadivelu","duration":15},{"id":1313840,"name":"Lanthu  Madurai","duration":6},{"id":944124,"name":"Vadivelu","duration":5},{"id":785035,"name":"American Cats Song","duration":22},{"id":1016908,"name":"Ive Got A Friend","duration":17},{"id":869416,"name":"Harry Potter Friends","duration":29},{"id":171518,"name":"Funny Man","duration":18},{"id":336435,"name":"Vadivelu Sms","duration":3},{"id":1163615,"name":"plasticine  joey","duration":5},{"id":1256331,"name":"Hallelujah Message","duration":5},{"id":171509,"name":"Funny Funny","duration":15},{"id":1310298,"name":"Vodafone Star","duration":19},{"id":943879,"name":"Vadivelu","duration":6},{"id":810116,"name":"Funny Low Battery","duration":15},{"id":377056,"name":"Vadivel Final","duration":10},{"id":290765,"name":"Funny Sounds","duration":29},{"id":174844,"name":"Funny Funny Ring","duration":12},{"id":813551,"name":"Halloween Old Phone","duration":24},{"id":251762,"name":"Funny Answer Phone","duration":21},{"id":1356020,"name":"Sneezing","duration":7},{"id":944123,"name":"Vadivelu","duration":15},{"id":790331,"name":"I Love U Baby","duration":4},{"id":916527,"name":"Virus Intro","duration":7},{"id":368058,"name":"Foamy Kill Ringtone","duration":10},{"id":175661,"name":"Funny Ringtone","duration":10},{"id":149742,"name":"Karimnagar Pori Ro","duration":28},{"id":793974,"name":"Blinding Funny Mix","duration":13},{"id":1239542,"name":"Water Flush","duration":14},{"id":944110,"name":"Goundamani","duration":16},{"id":1231354,"name":"Phone Upado Ne Honey","duration":26},{"id":1316947,"name":"Sc2","duration":21},{"id":940736,"name":"Love You Daddy","duration":2},{"id":175048,"name":"Funny Mixed","duration":26},{"id":151115,"name":"Love U Baby","duration":4},{"id":1349885,"name":"Bgm Tvp","duration":16},{"id":263876,"name":"Gachibowli Diwakar","duration":9},{"id":1019584,"name":"El Kabir Ringtone","duration":23},{"id":160751,"name":"Condomm Ringtone","duration":28},{"id":62594,"name":"raamjirao","duration":22},{"id":1089861,"name":"Friday - Ezelle","duration":17},{"id":1361736,"name":"Titanic New 2010","duration":13},{"id":1349883,"name":"Asal Love Facts","duration":8},{"id":1142836,"name":"Crazy Comedy","duration":1},{"id":1203422,"name":"Cat Song","duration":20},{"id":1252781,"name":"Tzr Tzr Tzr","duration":10},{"id":1025116,"name":"Boss Ringtone","duration":9}]}